%YAML 1.1
%TAG !u! tag:unity3d.com,2011:
--- !u!114 &11400000
MonoBehaviour:
  m_ObjectHideFlags: 0
  m_CorrespondingSourceObject: {fileID: 0}
  m_PrefabInstance: {fileID: 0}
  m_PrefabAsset: {fileID: 0}
  m_GameObject: {fileID: 0}
  m_Enabled: 1
  m_EditorHideFlags: 0
  m_Script: {fileID: 11500000, guid: aae8948cb18764888974310df481502a, type: 3}
  m_Name: DataGame
  m_EditorClassIdentifier: 
  _normalStageDatas:
  - prefab: {fileID: 2673340826010432939, guid: 48dcc328510714a2d81c720493c446ec, type: 3}
  - prefab: {fileID: 2673340826010432939, guid: 6fd219fc6e9064fe59a7a6f86a9f14a1, type: 3}
  - prefab: {fileID: 2673340826010432939, guid: e665815700fce474cbe0e76a6b5dbe1d, type: 3}
