%YAML 1.1
%TAG !u! tag:unity3d.com,2011:
--- !u!1045 &1
EditorBuildSettings:
  m_ObjectHideFlags: 0
  serializedVersion: 2
  m_Scenes:
  - enabled: 1
    path: Assets/Scenes/Init/Init.unity
    guid: f23ec582f97124cef9beddc948c8f691
  - enabled: 1
    path: Assets/Scenes/Stage.unity
    guid: e51e32c80ebcd49868895b93775d9c05
  m_configObjects: {}
